{
  "script": "scripts/ant.xml",
  "targets": {
    "onLoad": "onLoad",
    "onGenerate": "onGenerate"
  },
  "_extraTemplates-documentation": "This array of objects identifies additional templates available for generation for different resource types",
  "extraTemplates": [
    {
      "name": "mappings",
      "description": "Mappings"
    },
    {
      "name": "examples",
      "description": "Examples"
    },
    {
      "name": "profile-xml",
      "description": "Profile XML"
    },
    {
      "name": "profile-json",
      "description": "Profile JSON"
    },
    {
      "name": "profile-ttl",
      "description": "Profile Turtle"
    },
    {
      "name": "profile-history",
      "description": "Profile Change History"
    },
    {
      "name": "change-history",
      "description": "Resource Change History"
    },
    {
      "name": "download",
      "description": "Download Any Format"
    },
    {
      "name": "previous-versions",
      "description": "Previous Versions"
    },
    {
      "name": "fullcontent",
      "description": "Onepage Narrative Content"
    }
  ],
  "_pre-process-documentation": "This array of objects indicates data being converted from existing files using scripts to support dependency checking when performing continuous builds",
  "pre-process": [
    {
      "folder": "input/includes",
      "relativePath": "_includes"
    },
    {
      "folder": "fsh-generated/includes",
      "relativePath": "_includes"
    },
    {
      "folder": "input/data",
      "relativePath": "_data"
    },
    {
      "folder": "input/resourcedocs",
      "relativePath": "_data"
    },
    {
      "folder": "input/intro-notes",
      "relativePath": "_includes",
      "transform": "template/scripts/processPages.xslt"
    },
    {
      "folder": "input/pagecontent",
      "relativePath": "_includes",
      "transform": "template/scripts/processPages.xslt"
    },
    {
      "folder": "input/pages",
      "relativePath": "_includes",
      "transform": "template/scripts/processPages.xslt"
    },
    {
      "folder": "input/files",
      "relativePath": "files"
    }
  ],
  "defaults": {
    "_documentation": "this object contains the default publishing policy for different types. Anything not mentioned defaults to true",
    "Any": {
      "java": false,
      "template-base": "template/layouts/layout-instance-base.html",
      "template-format": "template/layouts/layout-instance-format.html",
      "base": "{{[type]}}-{{[id]}}.html",
      "format": "{{[type]}}-{{[id]}}.{{[fmt]}}.html",
      "list-types": "CodeSystem|ValueSet",
      "template-change-history": "template/layouts/layout-changehistory.html",
      "change-history": "{{[type]}}-{{[id]}}.change.history.html"
    },
    "example": {
      "java": false,
      "template-base": "template/layouts/layout-instance-base.html",
      "template-format": "template/layouts/layout-instance-format.html",
      "base": "{{[type]}}-{{[id]}}.html",
      "format": "{{[type]}}-{{[id]}}.{{[fmt]}}.html",
      "template-change-history": "template/layouts/layout-changehistory.html",
      "change-history": "{{[type]}}-{{[id]}}.change.history.html"
    },
    "ImplementationGuide": {
      "template-base": "",
      "template-format": "",
      "template-change-history":""
    },
    "StructureDefinition:extension": {
      "template-base": "template/layouts/layout-ext.html",
      "template-defns": "template/layouts/layout-profile-definitions.html",
      "template-mappings": "template/layouts/layout-profile-mappings.html",
      "template-examples": "",
      "template-profile-xml": "template/layouts/layout-profile-format.html",
      "template-profile-json": "template/layouts/layout-profile-format.html",
      "template-profile-ttl": "template/layouts/layout-profile-format.html",
      "template-profile-history": "template/layouts/layout-profile-history.html",
      "template-format": "",
      "base": "{{[type]}}-{{[id]}}.html",
      "defns": "{{[type]}}-{{[id]}}-definitions.html",
      "mappings": "{{[type]}}-{{[id]}}-mappings.html",
      "examples": "{{[type]}}-{{[id]}}-examples.html",
      "profile-xml": "{{[type]}}-{{[id]}}.profile.xml.html",
      "profile-json": "{{[type]}}-{{[id]}}.profile.json.html",
      "profile-ttl": "{{[type]}}-{{[id]}}.profile.ttl.html",
      "profile-history": "{{[type]}}-{{[id]}}.profile.history.html",
      "template-change-history": ""
    },
    "StructureDefinition": {
      "template-base": "template/layouts/layout-profile.html",
      "template-defns": "template/layouts/layout-profile-definitions.html",
      "template-mappings": "template/layouts/layout-profile-mappings.html",
      "template-examples": "template/layouts/layout-profile-examples.html",
      "template-profile-xml": "template/layouts/layout-profile-format.html",
      "template-profile-json": "template/layouts/layout-profile-format.html",
      "template-profile-ttl": "template/layouts/layout-profile-format.html",
      "template-profile-history": "template/layouts/layout-profile-history.html",
      "template-format": "",
      "base": "{{[type]}}-{{[id]}}.html",
      "defns": "{{[type]}}-{{[id]}}-definitions.html",
      "mappings": "{{[type]}}-{{[id]}}-mappings.html",
      "examples": "{{[type]}}-{{[id]}}-examples.html",
      "format": "{{[type]}}-{{[id]}}.profile.xml.html",
      "profile-xml": "{{[type]}}-{{[id]}}.profile.xml.html",
      "profile-json": "{{[type]}}-{{[id]}}.profile.json.html",
      "profile-ttl": "{{[type]}}-{{[id]}}.profile.ttl.html",
      "profile-history": "{{[type]}}-{{[id]}}.profile.history.html",
      "template-change-history": "",
      "_comment": "this template-change-history is here to undo the definition in the Any settings"
    },
    "CodeSystem": {
      "template-base": "template/layouts/layout-codesystem.html",
      "template-fullcontent": "template/layouts/layout-codesystem-fullcontent.html",
      "template-format": "template/layouts/layout-instance-format.html",
      "template-change-history": "template/layouts/layout-changehistory.html",
      "template-download": "template/layouts/layout-download.html",
      "template-previous-versions": "template/layouts/layout-previous-versions.html",
      "base": "{{[type]}}-{{[id]}}.html",
      "fullcontent": "{{[type]}}-{{[id]}}.fullcontent.html",
      "format": "{{[type]}}-{{[id]}}.{{[fmt]}}.html",
      "change-history": "{{[type]}}-{{[id]}}.change.history.html",
      "download": "{{[type]}}-{{[id]}}.download.html",
      "previous-versions": "{{[type]}}-{{[id]}}.previous-versions.html",
      "xml": false,
      "xml-html": false,
      "json": false,
      "json-html": false,
      "ttl": false,
      "ttl-html": false,
      "xlsx": false
    },
    "ConceptMap": {
      "template-base": "template/layouts/layout-conceptmap.html",
      "template-format": "template/layouts/layout-instance-format.html",
      "template-change-history": "template/layouts/layout-changehistory.html",
      "base": "{{[type]}}-{{[id]}}.html",
      "format": "{{[type]}}-{{[id]}}.{{[fmt]}}.html",
      "change-history": "{{[type]}}-{{[id]}}.change.history.html"
    },
    "ValueSet": {
      "template-base": "template/layouts/layout-valueset.html",
      "template-fullcontent": "template/layouts/layout-valueset-fullcontent.html",
      "template-format": "template/layouts/layout-instance-format.html",
      "template-change-history": "template/layouts/layout-changehistory.html",
      "template-download": "template/layouts/layout-download.html",
      "template-previous-versions": "template/layouts/layout-previous-versions.html",
      "base": "{{[type]}}-{{[id]}}.html",
      "fullcontent": "{{[type]}}-{{[id]}}.fullcontent.html",
      "format": "{{[type]}}-{{[id]}}.{{[fmt]}}.html",
      "change-history": "{{[type]}}-{{[id]}}.change.history.html",
      "download": "{{[type]}}-{{[id]}}.download.html",
      "previous-versions": "{{[type]}}-{{[id]}}.previous-versions.html",
      "xml": false,
      "xml-html": false,
      "json": false,
      "json-html": false,
      "ttl": false,
      "ttl-html": false,
      "xlsx": false
    }
  }
}

